{
  "file_generated_by": "FlutterFire CLI",
  "purpose": "FirebaseAppID & ProjectID for this Firebase app in this directory",
  "GOOGLE_APP_ID": "1:455967658753:ios:d4ab0c7fef860cc9fbc100",
  "FIREBASE_PROJECT_ID": "final-year-project-bd47a",
  "GCM_SENDER_ID": "455967658753"
}